{
	"id": "970ce57f-c2b5-4580-b216-069896e7961f",
	"name": "Production",
	"values": [
		{
			"key": "baseUrl",
			"value": "http://cars-api-env-4.eba-ei5iu2d3.us-east-1.elasticbeanstalk.com/",
			"enabled": true
		}
	],
	"_postman_variable_scope": "environment",
	"_postman_exported_at": "2023-08-29T22:47:09.530Z",
	"_postman_exported_using": "Postman/10.17.4"
}